<?xml version="1.0" encoding="UTF-8"?>
<svg width="10px" height="16px" viewBox="0 0 10 16" version="1.1" xmlns="http://www.w3.org/2000/svg" xmlns:xlink="http://www.w3.org/1999/xlink">
  <title>Right Arrow</title>
  <g stroke="none" stroke-width="1" fill="none" fill-rule="evenodd">
    <polygon fill="currentColor" fill-rule="nonzero" points="0.548419906 14.5387236 1.60908008 15.5993838 9.13941016 8.06905372 1.60908008 0.538723615 0.548419904 1.59938379 7.01808982 8.06905372"></polygon>
  </g>
</svg>