<?xml version="1.0" encoding="UTF-8"?>
<svg width="35px" height="35px" viewBox="0 0 35 35" version="1.1" xmlns="http://www.w3.org/2000/svg" xmlns:xlink="http://www.w3.org/1999/xlink">
    <!-- Generator: Sketch 58 (84663) - https://sketch.com -->
    <title>Group 5</title>
    <desc>Created with Sketch.</desc>
    <g id="Page-1" stroke="none" stroke-width="1" fill="none" fill-rule="evenodd">
        <g id="mobile_02" transform="translate(-328.000000, -10.000000)">
            <g id="Group-5" transform="translate(328.000000, 10.000000)">
                <rect id="Rectangle" fill="#FFFFFF" x="0" y="0" width="35" height="35" rx="3"></rect>
                <path d="M11,10 L25,24" id="Line-4-Copy" stroke="#6C2888" stroke-width="3" stroke-linecap="square" transform="translate(18.000000, 17.000000) scale(-1, 1) translate(-18.000000, -17.000000) "></path>
                <path d="M11,10 L25,24" id="Line-4-Copy" stroke="#6C2888" stroke-width="3" stroke-linecap="square"></path>
            </g>
        </g>
    </g>
</svg>