<?xml version="1.0" encoding="UTF-8"?>
<svg width="1600px" height="2172px" viewBox="0 0 1600 2172" version="1.1" xmlns="http://www.w3.org/2000/svg" xmlns:xlink="http://www.w3.org/1999/xlink">
    <!-- Generator: Sketch 58 (84663) - https://sketch.com -->
    <title>Globe Background</title>
    <desc>Created with Sketch.</desc>
    <g id="Page-1" stroke="none" stroke-width="1" fill="none" fill-rule="evenodd">
        <g id="BHI_home">
            <g id="Globe-Background" transform="translate(-2511.000000, -5471.000000)">
                <g id="Group-8">
                    <ellipse id="Oval-Copy-5" fill="#EFEFEF" cx="3388.03575" cy="4251.59522" rx="3388.03575" ry="3390.45998"></ellipse>
                    <ellipse id="Oval-Copy-4" fill="#FFFFFF" cx="3394.96425" cy="3390.45998" rx="3388.03575" ry="3390.45998"></ellipse>
                </g>
                <path d="M3190.38077,7334.0071 C3190.15398,7333.78014 3189.85159,7333.65909 3189.53408,7333.65909 L3173.32601,7333.65909 L3141.92286,7302.2167 C3141.69607,7301.97461 3141.39368,7301.85356 3141.07617,7301.85356 L3128.08854,7301.85356 L3115.35795,7289.14345 C3112.27357,7286.05671 3108.00988,7284.25611 3103.62524,7284.25611 L3068.13983,7284.25611 C3067.83744,7284.25611 3067.51993,7284.39229 3067.29314,7284.61926 L3061.69894,7290.21776 L3044.67441,7290.21776 L3039.95714,7285.49686 L3039.95714,7268.06586 C3039.95714,7267.40009 3039.41283,7266.85537 3038.74758,7266.85537 L3025.30637,7266.85537 L3025.30637,7261.60489 L3028.4361,7258.45762 C3028.66289,7258.24579 3028.78384,7257.92804 3028.78384,7257.62542 L3028.78384,7247.2455 C3028.78384,7246.57973 3028.23954,7246.03501 3027.57429,7246.03501 L3020.60421,7246.03501 C3020.2867,7246.03501 3019.98431,7246.15606 3019.75752,7246.39815 L3009.94498,7256.18796 L3001.38736,7256.18796 L2992.7995,7247.60864 L2992.7995,7227.24221 L3002.68763,7217.33135 L3038.24863,7217.33135 L3040.38048,7219.46483 L3040.38048,7227.87771 C3040.38048,7228.19547 3040.50144,7228.49809 3040.74335,7228.72505 L3047.59247,7235.57943 C3048.06117,7236.0485 3048.80203,7236.03337 3049.27073,7235.59456 L3051.38746,7233.49134 C3051.62937,7233.26438 3051.75032,7232.94663 3051.75032,7232.644 L3051.75032,7224.04955 C3051.75032,7223.74693 3051.62937,7223.42918 3051.38746,7223.21734 L3048.40892,7220.22139 L3048.40892,7209.44806 L3066.76396,7191.04867 C3066.99075,7190.8217 3067.12683,7190.51908 3067.12683,7190.20133 L3067.12683,7184.84493 L3096.17134,7155.76299 L3096.17134,7160.81677 C3096.17134,7161.48254 3096.71564,7162.02726 3097.38089,7162.02726 L3106.04435,7162.02726 C3106.34674,7162.02726 3106.66425,7161.89108 3106.89104,7161.66411 L3118.69935,7149.84674 C3118.92614,7149.61977 3119.0471,7149.31715 3119.0471,7148.9994 L3119.0471,7143.5976 C3119.0471,7143.11341 3118.75983,7142.67461 3118.30624,7142.49304 C3117.86778,7142.2812 3117.30836,7142.38712 3117.00597,7142.75026 L3109.89982,7149.86187 L3107.37486,7149.86187 L3104.59288,7147.07775 L3104.59288,7138.7254 C3104.59288,7138.07476 3104.04858,7137.53004 3103.38332,7137.53004 L3091.72621,7137.53004 L3096.95755,7132.30982 L3104.50216,7132.30982 C3104.32073,7132.52165 3103.95786,7132.56705 3103.95786,7132.86967 L3103.95786,7134.09529 C3103.95786,7134.41304 3104.07882,7134.73079 3104.32073,7134.94263 L3107.31439,7137.93858 C3107.54118,7138.18068 3107.85869,7138.30173 3108.1762,7138.30173 L3112.51549,7138.30173 C3112.99931,7138.30173 3113.43777,7138.01424 3113.61921,7137.5603 C3113.81576,7137.1215 3113.70992,7136.60705 3113.36218,7136.25903 L3109.41599,7132.30982 L3123.80973,7132.30982 L3120.55905,7135.563 C3120.31713,7135.78997 3120.19618,7136.09259 3120.19618,7136.41034 L3120.19618,7143.55221 C3120.19618,7144.21798 3120.74048,7144.7627 3121.40574,7144.7627 L3144.41757,7144.7627 C3144.91652,7144.7627 3145.33986,7144.46008 3145.53641,7144.00614 C3145.71785,7143.56734 3145.61201,7143.05289 3145.26426,7142.70487 L3134.13633,7131.55327 L3134.5748,7116.92151 C3134.5748,7116.60376 3134.43872,7116.28601 3134.21193,7116.04391 L3101.64458,7083.45157 C3101.17588,7082.99763 3100.41991,7082.99763 3099.96632,7083.45157 L3094.62915,7088.77771 L3074.45977,7068.62311 C3074.23298,7068.38101 3073.93059,7068.25996 3073.61308,7068.25996 L3058.796,7068.25996 C3058.14586,7068.25996 3057.60156,7068.80468 3057.60156,7069.47045 L3057.60156,7105.19493 L3051.67473,7111.14144 C3051.43281,7111.35328 3051.31186,7111.67103 3051.31186,7111.98878 L3051.31186,7119.9326 L3034.52924,7103.1371 C3034.30245,7102.91013 3034.00006,7102.77395 3033.68255,7102.77395 L3021.05779,7102.77395 L3004.53221,7086.23568 L3004.53221,7078.70041 L3033.42552,7049.78492 L3039.01973,7049.78492 C3039.32212,7049.78492 3039.63963,7049.66387 3039.8513,7049.42177 L3046.11076,7043.17263 C3046.35267,7042.94567 3046.47363,7042.64305 3046.47363,7042.32529 L3046.47363,7026.13504 L3057.85859,7026.13504 L3074.85288,7043.12724 L3066.21966,7051.78222 L3059.82412,7051.78222 C3059.50661,7051.78222 3059.1891,7051.90327 3058.97743,7052.14536 L3055.16732,7055.9584 C3054.6835,7056.42746 3054.6835,7057.18401 3055.16732,7057.63795 L3058.55409,7061.04244 C3058.76576,7061.28454 3059.08327,7061.40558 3059.40078,7061.40558 L3076.04732,7061.40558 L3088.59648,7073.94925 C3088.82327,7074.19135 3089.12566,7074.31239 3089.44317,7074.31239 L3100.67694,7074.31239 C3101.32708,7074.31239 3101.87138,7073.76768 3101.87138,7073.11704 L3101.87138,7059.39315 C3101.87138,7059.0754 3101.75042,7058.75764 3101.52363,7058.53068 L3095.20369,7052.20589 L3095.20369,7048.0751 L3095.56656,7048.0751 L3102.26448,7054.76304 C3102.49128,7055.00514 3102.80878,7055.12619 3103.12629,7055.12619 L3110.2778,7055.12619 C3110.94306,7055.12619 3111.48736,7054.58147 3111.48736,7053.9157 L3111.48736,7045.35151 C3111.48736,7045.04889 3111.35129,7044.73113 3111.12449,7044.5193 L3087.26597,7020.64246 C3087.05429,7020.40036 3086.73678,7020.27931 3086.43439,7020.27931 L3079.298,7020.27931 L3065.20665,7006.19228 C3062.12228,7003.09041 3057.84347,7001.32007 3053.48906,7001.32007 L3023.71882,7001.32007 C3023.41643,7001.32007 3023.09892,7001.44112 3022.87213,7001.68322 L3017.17209,7007.40276 C3016.9453,7007.6146 3016.82434,7007.93235 3016.82434,7008.2501 L3016.82434,7015.0137 C3016.82434,7015.33145 3016.9453,7015.6492 3017.17209,7015.87617 L3030.08412,7028.79811 L3027.40797,7029.07047 C3027.18118,7029.0856 3026.95439,7029.16125 3026.78807,7029.29743 L3021.75329,7033.20125 L3007.79802,7019.22014 L3007.79802,7011.4125 L3016.14397,7003.01475 C3016.38588,7002.80292 3016.50683,7002.48516 3016.50683,7002.16741 L3016.50683,6999.18659 C3016.50683,6998.52082 3015.96253,6997.9761 3015.29727,6997.9761 L2999.28575,6997.9761 C2998.96824,6997.9761 2998.66585,6998.09715 2998.43906,6998.33925 L2996.63985,7000.13985 C2996.41305,7000.35168 2996.2921,7000.66943 2996.2921,7000.98719 L2996.2921,7023.80485 L2990.15359,7029.94807 L2825.63861,7029.94807 L2815.20617,7019.50763 C2814.97938,7019.28066 2814.66187,7019.15961 2814.35948,7019.15961 L2781.55022,7019.15961 C2777.1807,7019.15961 2772.90188,7020.94508 2769.83263,7024.04695 L2763.30102,7030.56844 C2760.17129,7033.68545 2758.44767,7037.84649 2758.44767,7042.29503 L2758.44767,7048.27181 L2756.96596,7048.27181 C2756.64845,7048.27181 2756.34606,7048.39286 2756.11927,7048.63495 L2754.44101,7050.3145 C2754.1991,7050.54147 2754.07814,7050.85922 2754.07814,7051.16184 L2754.07814,7052.81113 C2754.07814,7053.46177 2754.62244,7054.02162 2755.2877,7054.02162 L2758.44767,7054.02162 L2758.44767,7060.30102 C2758.44767,7060.95165 2758.99197,7061.49637 2759.64211,7061.49637 L2774.6255,7061.49637 L2770.7398,7065.40019 L2764.82809,7065.40019 C2764.51058,7065.40019 2764.19307,7065.52124 2763.9814,7065.7482 L2758.79542,7070.93816 C2758.56862,7071.15 2758.44767,7071.46775 2758.44767,7071.7855 L2758.44767,7075.70445 C2758.44767,7076.02221 2758.56862,7076.33996 2758.79542,7076.55179 L2780.93032,7098.73396 L2768.97082,7110.7329 C2768.62307,7111.08092 2768.51724,7111.59537 2768.69867,7112.03417 C2768.89522,7112.47298 2769.31857,7112.7756 2769.81751,7112.7756 L2783.04705,7112.7756 C2783.36456,7112.7756 2783.66695,7112.65455 2783.89374,7112.41245 L2805.6809,7090.60857 C2808.37217,7087.93037 2811.91012,7086.46265 2815.72023,7086.46265 L2840.44057,7086.46265 C2844.1902,7086.46265 2847.84911,7087.99089 2850.4799,7090.60857 L2895.79296,7135.94128 C2898.45399,7138.63461 2899.9357,7142.20555 2899.9357,7145.98831 L2899.9357,7176.53796 C2899.9357,7180.89571 2901.70467,7185.17781 2904.78905,7188.26455 L2926.68204,7210.17435 L2926.68204,7221.18978 C2926.68204,7221.50753 2926.803,7221.82528 2927.04491,7222.03712 L2948.83207,7243.85613 C2949.04374,7244.09823 2949.36125,7244.21928 2949.67876,7244.21928 L2951.3419,7244.21928 C2952.00716,7244.21928 2952.55146,7243.67456 2952.55146,7243.00879 L2952.55146,7237.66752 C2952.55146,7237.34977 2952.43051,7237.03202 2952.18859,7236.82018 L2935.85956,7220.46349 L2935.85956,7214.9709 L2963.27117,7242.43381 L2963.27117,7249.63621 C2963.27117,7249.95396 2963.40724,7250.25658 2963.63404,7250.48355 L2977.87658,7264.72189 C2980.94583,7267.82376 2985.22464,7269.5941 2989.59417,7269.5941 L3002.86907,7269.5941 C3006.64894,7269.5941 3010.21713,7271.06181 3012.9084,7273.74001 L3038.36959,7299.23588 C3038.59638,7299.46285 3038.89877,7299.5839 3039.21628,7299.5839 L3047.3052,7299.5839 C3047.60759,7299.5839 3047.87974,7299.47798 3048.10653,7299.29641 L3052.67261,7295.27154 L3056.5432,7295.27154 L3057.25381,7295.96757 L3057.25381,7334.09789 L3054.12408,7337.24515 L3046.05028,7337.24515 C3045.40015,7337.24515 3044.85584,7337.78987 3044.85584,7338.45564 L3044.85584,7345.55211 C3044.85584,7345.85474 3044.9768,7346.17249 3045.20359,7346.38432 L3054.98589,7356.20439 L3054.98589,7363.28574 C3054.98589,7363.60349 3055.10685,7363.90611 3055.34876,7364.13308 L3072.79663,7381.59434 C3075.47278,7384.28768 3076.95449,7387.84348 3076.95449,7391.64138 L3076.95449,7452.8012 L3070.19608,7459.57993 C3069.95417,7459.79176 3069.83321,7460.10951 3069.83321,7460.42727 L3069.83321,7532.42094 C3069.83321,7532.72356 3069.95417,7533.04131 3070.19608,7533.25315 L3079.46432,7542.54363 C3079.69111,7542.78573 3079.9935,7542.90678 3080.31101,7542.90678 L3097.78912,7542.90678 C3098.10663,7542.90678 3098.42414,7542.78573 3098.65093,7542.54363 L3101.85626,7539.33584 C3102.30984,7538.86678 3102.30984,7538.11023 3101.85626,7537.64116 L3100.91885,7536.70303 C3100.69206,7536.47607 3100.37455,7536.35502 3100.05704,7536.35502 L3096.36789,7536.35502 L3091.4087,7531.34663 L3091.4087,7513.9005 L3099.58834,7505.68432 C3099.81513,7505.47249 3099.93608,7505.15474 3099.93608,7504.83698 L3099.93608,7488.5862 L3158.81131,7429.65065 C3159.05322,7429.43882 3159.17418,7429.12106 3159.17418,7428.80331 L3159.17418,7420.02729 L3191.13674,7388.02505 C3191.36354,7387.81322 3191.48449,7387.49547 3191.48449,7387.19284 L3191.48449,7370.69997 L3205.06178,7357.082 C3205.30369,7356.87016 3205.42465,7356.55241 3205.42465,7356.23466 L3205.42465,7349.54672 C3205.42465,7349.2441 3205.30369,7348.92635 3205.06178,7348.71451 L3190.38077,7334.0071 Z M3809.58367,7388.72108 L3809.58367,7375.36034 C3809.58367,7375.05772 3809.44759,7374.73997 3809.2208,7374.52813 L3797.74512,7363.05877 C3797.29153,7362.58971 3796.53556,7362.58971 3796.06686,7363.05877 L3793.13368,7365.9942 C3792.90689,7366.20604 3792.78593,7366.52379 3792.78593,7366.82641 L3792.78593,7380.17202 L3787.50923,7385.43764 L3777.6211,7375.55704 L3777.6211,7365.57053 C3777.6211,7364.90476 3777.0768,7364.36005 3776.42666,7364.36005 L3751.81216,7364.36005 C3751.49465,7364.36005 3751.19226,7364.48109 3750.96547,7364.72319 L3720.81724,7394.87943 L3708.32856,7394.87943 C3708.01105,7394.87943 3707.70866,7395.01561 3707.48186,7395.24258 L3694.14649,7408.61845 C3693.90458,7408.83029 3693.78362,7409.14804 3693.78362,7409.46579 L3693.78362,7454.32944 C3693.78362,7454.98008 3694.34304,7455.5248 3694.99318,7455.5248 L3728.51305,7455.5248 C3728.81544,7455.5248 3729.13295,7455.40375 3729.34462,7455.16165 L3738.43143,7446.09813 L3766.49317,7446.09813 L3794.14668,7473.74262 C3794.35836,7473.98471 3794.67587,7474.10576 3794.97825,7474.10576 L3815.72217,7474.10576 C3816.03968,7474.10576 3816.35719,7473.98471 3816.56886,7473.74262 L3838.03851,7452.25648 C3838.28042,7452.02952 3838.40138,7451.7269 3838.40138,7451.40914 L3838.40138,7418.07538 C3838.40138,7417.75762 3838.28042,7417.43987 3838.03851,7417.22804 L3809.58367,7388.72108 Z M3625.97279,6934.244 C3626.18446,6934.47096 3626.50197,6934.59201 3626.80436,6934.59201 L3639.73151,6934.59201 L3645.47691,6940.32669 C3645.68858,6940.56879 3646.00609,6940.67471 3646.30848,6940.67471 L3657.60272,6940.67471 C3657.92023,6940.67471 3658.23774,6940.56879 3658.44941,6940.32669 L3664.45184,6934.31965 C3664.69376,6934.10782 3664.81471,6933.79006 3664.81471,6933.48744 C3664.81471,6933.16969 3664.69376,6932.85194 3664.45184,6932.6401 L3660.91389,6929.0843 C3660.6871,6928.85733 3660.36959,6928.72115 3660.05208,6928.72115 L3647.4878,6928.72115 L3638.03813,6919.27936 C3637.82645,6919.05239 3637.50894,6918.91621 3637.19144,6918.91621 L3620.69609,6918.91621 C3620.03083,6918.91621 3619.48653,6919.47606 3619.48653,6920.1267 L3619.48653,6927.26857 C3619.48653,6927.58632 3619.60749,6927.90407 3619.8494,6928.11591 L3625.97279,6934.244 Z M3281.82334,7065.14296 C3281.82334,7064.49232 3281.27904,7063.93247 3280.61379,7063.93247 L3264.60226,7063.93247 C3263.93701,7063.93247 3263.39271,7064.49232 3263.39271,7065.14296 L3263.39271,7073.52558 C3263.39271,7073.8282 3263.51366,7074.14595 3263.75557,7074.35779 L3273.15989,7083.78445 L3273.15989,7087.35538 L3268.23094,7092.30325 C3267.98903,7092.53021 3267.86807,7092.83283 3267.86807,7093.15059 L3267.86807,7104.96796 C3267.86807,7105.6186 3268.41237,7106.16332 3269.07763,7106.16332 L3286.67669,7106.16332 C3286.97908,7106.16332 3287.29659,7106.04227 3287.50827,7105.80017 L3293.48046,7099.82339 C3293.70725,7099.61156 3293.8282,7099.29381 3293.8282,7098.99118 L3293.8282,7091.59209 C3293.8282,7091.27433 3293.70725,7090.95658 3293.48046,7090.72961 L3281.82334,7079.06355 L3281.82334,7065.14296 Z M3344.84131,7164.66007 C3344.84131,7161.45228 3327.49927,7146.57843 3324.4905,7145.05019 C3314.17902,7139.81483 3307.63228,7150.48225 3301.29722,7156.80704 C3297.71391,7160.40823 3296.7009,7165.56793 3298.6362,7170.24343 C3300.57149,7174.91894 3304.9259,7177.83924 3309.99092,7177.83924 L3316.58301,7177.85437 C3320.49896,7177.85437 3324.18811,7179.38261 3326.95497,7182.16672 L3336.31392,7191.51773 C3338.64232,7193.83279 3341.7267,7195.11893 3345.00762,7195.11893 L3409.62825,7195.11893 L3414.78399,7189.95923 L3414.78399,7177.97542 L3401.22182,7177.97542 C3397.30588,7177.97542 3393.60161,7176.43205 3390.83474,7173.66306 L3375.17097,7158.00239 L3372.35875,7160.81677 L3376.60732,7165.09887 C3376.84923,7165.32583 3376.97019,7165.64359 3376.97019,7165.96134 L3376.97019,7169.21452 C3376.97019,7169.51714 3376.84923,7169.8349 3376.60732,7170.06186 L3371.96564,7174.7071 C3371.49694,7175.17617 3370.74096,7175.17617 3370.27226,7174.7071 L3357.31487,7161.72464 C3357.07296,7161.5128 3356.952,7161.19505 3356.952,7160.8773 L3356.952,7153.34202 L3354.72944,7151.11775 L3352.77903,7151.11775 C3352.47664,7151.11775 3352.15913,7150.98157 3351.94746,7150.7546 L3337.79563,7136.60705 L3335.96618,7136.60705 L3335.96618,7139.45169 L3356.25651,7159.77273 C3356.60426,7160.12074 3356.71009,7160.6352 3356.52866,7161.074 C3356.33211,7161.52793 3355.89364,7161.83055 3355.40982,7161.83055 L3351.19149,7161.83055 L3351.19149,7165.08374 C3351.19149,7165.40149 3351.05541,7165.71924 3350.82862,7165.94621 L3345.71824,7171.07564 L3345.71824,7174.14725 C3345.71824,7174.44987 3345.59728,7174.76763 3345.35537,7174.97946 L3342.58851,7177.74845 C3342.1198,7178.23264 3341.36383,7178.23264 3340.89512,7177.74845 L3332.63989,7169.50201 C3332.29214,7169.154 3332.18631,7168.63954 3332.36774,7168.20074 C3332.56429,7167.74681 3333.00276,7167.45932 3333.48658,7167.45932 L3343.9039,7167.45932 L3344.84131,7166.52119 L3344.84131,7164.66007 Z M3973.49387,7026.6495 C3973.49387,7026.96725 3973.37292,7027.285 3973.14612,7027.49684 L3965.32936,7035.28934 C3965.11768,7035.53144 3964.80017,7035.65249 3964.49778,7035.65249 L3952.99187,7035.65249 C3952.67436,7035.65249 3952.37197,7035.53144 3952.14518,7035.28934 L3942.78622,7025.95347 L3937.67584,7025.95347 L3931.29542,7032.33878 L3931.29542,7038.43661 C3931.29542,7038.75436 3931.17447,7039.07211 3930.93256,7039.28395 L3914.43721,7055.79195 C3911.70059,7058.53068 3907.92072,7060.11944 3904.03501,7060.11944 L3883.33645,7060.11944 L3872.11781,7071.3467 L3872.11781,7083.87524 C3872.11781,7087.80932 3870.57562,7091.5013 3867.79364,7094.27029 L3850.07361,7112.03417 C3849.74099,7112.38219 3849.18156,7112.45784 3848.77334,7112.2914 C3848.31975,7112.0947 3848.03248,7111.67103 3848.03248,7111.1717 L3848.03248,7087.09816 C3848.03248,7083.2246 3849.58979,7079.4267 3852.32642,7076.68797 L3874.673,7054.30911 L3854.21635,7054.30911 L3842.51388,7066.02056 C3842.3022,7066.26266 3841.9847,7066.38371 3841.68231,7066.38371 L3804.92687,7066.38371 C3801.64594,7066.38371 3798.57669,7067.65472 3796.23317,7069.98491 L3776.85001,7089.39808 L3779.67735,7092.24272 L3790.1249,7092.24272 C3790.44241,7092.24272 3790.7448,7092.36377 3790.97159,7092.60587 L3795.96102,7097.58399 C3796.18781,7097.81096 3796.32389,7098.12871 3796.32389,7098.44646 L3796.32389,7104.54429 C3796.32389,7104.86204 3796.18781,7105.16466 3795.96102,7105.39163 L3792.95225,7108.40271 L3792.95225,7123.74563 C3792.95225,7124.06338 3792.83129,7124.38113 3792.58938,7124.59297 L3768.33774,7148.87835 C3768.11095,7149.10532 3767.79344,7149.2415 3767.49105,7149.2415 L3761.79101,7149.2415 L3747.09488,7163.94891 L3753.17291,7170.06186 C3753.41482,7170.2737 3753.53578,7170.59145 3753.53578,7170.89407 L3753.53578,7180.97137 C3753.53578,7181.27399 3753.41482,7181.59174 3753.17291,7181.80358 L3742.55904,7192.44073 C3742.21129,7192.78874 3741.68211,7192.89466 3741.25877,7192.71309 C3740.80518,7192.51638 3740.50279,7192.07758 3740.50279,7191.59339 L3740.50279,7173.99594 L3729.99476,7163.46471 L3716.85594,7163.46471 L3712.44105,7167.89812 L3715.60102,7171.06051 L3725.71595,7171.06051 C3726.36609,7171.06051 3726.91039,7171.60523 3726.91039,7172.271 L3726.91039,7173.57227 C3726.91039,7173.89002 3726.78943,7174.19265 3726.54752,7174.41961 L3716.38723,7184.60283 L3722.5711,7190.80657 C3722.79789,7191.03354 3722.93397,7191.33616 3722.93397,7191.65391 L3722.93397,7207.8593 C3722.93397,7208.17705 3722.79789,7208.47967 3722.5711,7208.70664 L3719.13898,7212.12626 L3719.13898,7221.09899 C3719.13898,7221.41674 3719.01802,7221.7345 3718.77611,7221.94633 L3704.80572,7235.92745 C3704.59405,7236.15441 3704.27654,7236.29059 3703.97415,7236.29059 L3698.3497,7236.29059 L3692.04488,7242.58512 C3691.83321,7242.81209 3691.5157,7242.93314 3691.21331,7242.93314 L3671.73943,7242.93314 L3668.83649,7245.85344 L3668.83649,7250.98287 L3679.35965,7261.52923 C3679.60156,7261.7562 3679.72251,7262.07395 3679.72251,7262.37657 L3679.72251,7274.76893 C3679.72251,7275.08668 3679.60156,7275.40443 3679.35965,7275.6314 L3667.00704,7287.99349 C3666.56857,7288.47769 3665.75212,7288.47769 3665.31365,7287.99349 L3649.1207,7271.81837 L3645.53738,7275.3893 L3645.53738,7286.79814 L3657.98071,7299.25101 C3658.2075,7299.46285 3658.34358,7299.7806 3658.34358,7300.08322 L3658.34358,7313.8979 C3658.34358,7314.38209 3658.04119,7314.82089 3657.5876,7315.00247 C3657.16426,7315.18404 3656.60484,7315.09325 3656.28733,7314.74524 L3644.82677,7303.26075 C3644.59998,7303.04891 3644.4639,7302.73116 3644.4639,7302.42854 L3644.4639,7297.35963 L3638.08348,7290.95918 C3637.85669,7290.74735 3637.72062,7290.42959 3637.72062,7290.11184 L3637.72062,7274.92024 C3637.72062,7271.62166 3636.43546,7268.55005 3634.1373,7266.21987 L3625.62504,7257.68594 C3625.38313,7257.45897 3625.26217,7257.14122 3625.26217,7256.8386 L3625.26217,7251.0434 L3613.19683,7238.99906 L3605.39518,7238.99906 L3578.52788,7265.87185 L3578.52788,7280.68518 C3578.52788,7280.9878 3578.40692,7281.30555 3578.16501,7281.51739 L3569.06309,7290.64143 C3568.59439,7291.12562 3567.83841,7291.12562 3567.36971,7290.64143 L3558.73649,7282.01671 C3558.5097,7281.80488 3558.37362,7281.48713 3558.37362,7281.18451 L3558.37362,7271.68219 L3549.31706,7262.58841 C3549.09027,7262.36144 3548.95419,7262.05882 3548.95419,7261.74107 L3548.95419,7246.59486 L3529.7827,7227.40865 C3527.49966,7225.12386 3524.33969,7223.80745 3521.089,7223.80745 L3498.93897,7223.80745 C3498.62147,7223.80745 3498.31908,7223.68641 3498.09228,7223.44431 L3491.84794,7217.2103 L3479.72212,7217.2103 C3479.40462,7217.2103 3479.08711,7217.07412 3478.87543,7216.84716 L3463.25702,7201.21675 L3463.25702,7210.15922 L3480.19083,7227.12116 L3487.65985,7219.66154 C3488.12855,7219.19247 3488.88453,7219.19247 3489.35323,7219.66154 L3496.38378,7226.71262 C3499.16577,7229.48161 3500.70795,7233.17359 3500.70795,7237.09254 C3500.70795,7241.04175 3499.16577,7244.73374 3496.38378,7247.50272 L3480.73513,7263.17852 C3480.50834,7263.40549 3480.19083,7263.54167 3479.88844,7263.54167 L3466.28091,7263.54167 L3457.48138,7272.31769 C3457.25459,7272.54466 3456.93708,7272.68084 3456.61957,7272.68084 L3444.72054,7272.68084 L3444.72054,7278.3096 L3456.60445,7278.3096 L3459.32596,7275.6314 C3459.53763,7275.3893 3459.85514,7275.26825 3460.15753,7275.26825 L3471.66345,7275.26825 C3472.31358,7275.26825 3472.873,7275.81297 3472.873,7276.46361 L3472.873,7284.37716 C3472.873,7284.67978 3472.73693,7284.99754 3472.51014,7285.20937 L3466.85545,7290.88353 L3466.85545,7297.07214 C3466.85545,7297.38989 3466.7345,7297.69251 3466.49259,7297.91948 L3434.48466,7329.95197 C3432.20162,7332.23677 3430.88623,7335.39916 3430.88623,7338.66747 L3430.88623,7373.28738 C3430.88623,7377.20633 3429.34404,7380.91345 3426.56206,7383.68243 L3414.72351,7395.5452 C3412.41023,7397.87539 3411.12508,7400.96213 3411.12508,7404.24557 L3411.12508,7419.4977 C3411.12508,7423.37125 3409.55265,7427.16915 3406.80091,7429.90788 C3401.99291,7434.71956 3397.06397,7439.47072 3392.34669,7444.37319 C3386.23842,7450.71311 3367.14253,7458.95955 3358.58491,7456.75041 C3351.69043,7454.98008 3343.72247,7443.41993 3343.72247,7436.44451 L3343.72247,7404.39688 L3334.89269,7395.5452 C3334.65078,7395.31823 3334.52983,7395.01561 3334.52983,7394.69786 L3334.52983,7346.11196 C3334.52983,7342.82852 3333.24467,7339.74178 3330.93139,7337.41159 L3325.24647,7331.72231 C3322.47961,7328.93819 3320.95254,7325.24621 3320.95254,7321.32726 L3320.95254,7315.74389 C3320.95254,7308.95003 3315.43393,7303.42719 3308.64529,7303.42719 L3263.93701,7303.42719 C3260.08154,7303.42719 3256.28655,7301.85356 3253.54993,7299.11483 L3232.14076,7277.68923 C3229.35877,7274.92024 3227.83171,7271.22826 3227.83171,7267.29417 L3227.83171,7229.42108 C3227.83171,7225.50213 3229.35877,7221.79502 3232.14076,7219.02603 L3265.91766,7185.2232 L3265.91766,7179.24643 L3254.8502,7168.17048 C3254.62341,7167.94351 3254.48734,7167.62576 3254.48734,7167.30801 L3254.48734,7145.92779 C3254.48734,7145.27715 3255.04676,7144.73244 3255.69689,7144.73244 L3282.77587,7144.73244 L3282.77587,7134.59461 L3271.48162,7123.27657 C3271.01292,7122.8075 3271.01292,7122.06608 3271.48162,7121.58188 L3275.91163,7117.16361 C3276.1233,7116.92151 3276.44081,7116.80046 3276.7432,7116.80046 L3288.64223,7116.80046 L3323.20534,7082.24108 C3323.67404,7081.77202 3324.43002,7081.77202 3324.89872,7082.24108 L3333.63778,7090.97171 L3355.60637,7090.86579 L3364.39079,7082.07464 L3364.39079,7048.756 C3364.39079,7048.43825 3364.51174,7048.1205 3364.75365,7047.90866 L3376.0479,7036.59061 L3376.0479,7029.44875 L3355.80292,7049.69413 C3353.48965,7052.02431 3352.20449,7055.11105 3352.20449,7058.3945 L3352.20449,7076.12812 C3352.20449,7076.43075 3352.08353,7076.7485 3351.84162,7076.96033 L3341.84765,7086.96198 C3341.63598,7087.20407 3341.31847,7087.32512 3341.00096,7087.32512 L3334.52983,7087.32512 C3333.87969,7087.32512 3333.33539,7086.7804 3333.33539,7086.11464 L3333.33539,7072.25457 L3327.27248,7066.187 L3318.76022,7074.69067 C3318.54854,7074.93277 3318.23103,7075.05382 3317.92864,7075.05382 C3317.61114,7075.05382 3317.29363,7074.93277 3317.06683,7074.69067 L3307.91955,7065.52124 C3307.69276,7065.3094 3307.55669,7064.99165 3307.55669,7064.6739 L3307.55669,7051.73682 C3307.55669,7051.41907 3307.69276,7051.10132 3307.91955,7050.88948 L3355.2435,7003.52921 C3358.01037,7000.74509 3361.69952,6999.21685 3365.63058,6999.21685 L3410.26327,6999.21685 C3414.14897,6999.21685 3417.92884,7000.79048 3420.66546,7003.52921 L3436.32924,7019.22014 C3436.79794,7019.6892 3436.79794,7020.43062 3436.32924,7020.91482 L3430.6292,7026.6041 C3430.41752,7026.8462 3430.10001,7026.96725 3429.78251,7026.96725 L3421.66335,7026.96725 C3421.36096,7026.96725 3421.04345,7026.8462 3420.83178,7026.6041 L3414.34552,7020.128 L3407.78367,7020.128 L3407.78367,7026.43766 L3419.38031,7038.02807 L3433.06343,7038.02807 L3454.33653,7016.78403 C3457.07315,7014.04531 3460.85302,7012.45654 3464.73873,7012.45654 L3483.39616,7012.45654 L3492.16545,7003.68052 C3492.39224,7003.45355 3492.69463,7003.3325 3493.01214,7003.3325 L3521.55771,7003.3325 C3524.79327,7003.3325 3527.96836,7002.0161 3530.26652,6999.73131 L3553.56563,6976.39918 C3556.31737,6973.67559 3560.09724,6972.08682 3563.96783,6972.08682 L3732.76162,6972.08682 C3736.64733,6972.08682 3740.4272,6973.67559 3743.16382,6976.39918 L3751.44929,6984.70614 C3753.73233,6986.99094 3756.8923,6988.30734 3760.15811,6988.30734 L3848.68262,6988.30734 C3852.61369,6988.30734 3856.30284,6989.83558 3859.0697,6992.6197 L3865.60131,6999.17146 C3867.91459,7001.44112 3871.07456,7002.75752 3874.32525,7002.75752 L3932.21771,7002.75752 C3936.14877,7002.75752 3939.83792,7004.30089 3942.60479,7007.08501 L3952.37197,7016.82943 L3963.68133,7016.82943 C3963.99884,7016.82943 3964.30123,7016.95047 3964.52802,7017.19257 L3973.14612,7025.80216 C3973.37292,7026.02912 3973.49387,7026.34687 3973.49387,7026.6495 L3973.49387,7026.6495 Z M2989.33714,6997.83992 L2983.54638,6997.83992 C2983.24399,6997.83992 2982.92648,6997.96097 2982.71481,6998.20307 L2974.3235,7006.58568 C2973.8548,7007.05475 2973.8548,7007.8113 2974.3235,7008.28037 L2985.63287,7019.59841 C2985.87478,7019.82538 2986.16205,7019.96156 2986.47956,7019.96156 C2986.79707,7019.96156 2987.08434,7019.82538 2987.32625,7019.59841 L2993.97882,7012.92561 C2994.22073,7012.71377 2994.34169,7012.39602 2994.34169,7012.07827 L2994.34169,7002.83318 C2994.34169,7002.51542 2994.22073,7002.19767 2993.97882,7001.98584 L2990.18383,6998.20307 C2989.97216,6997.96097 2989.65465,6997.83992 2989.33714,6997.83992 L2989.33714,6997.83992 Z M2906.99649,7018.59976 L2922.7661,7018.59976 L2930.6887,7026.52845 C2930.90038,7026.75541 2931.21789,7026.89159 2931.52028,7026.89159 L2976.69726,7026.89159 C2977.18108,7026.89159 2977.61955,7026.58897 2977.8161,7026.13504 C2977.99753,7025.69624 2977.8917,7025.18178 2977.54395,7024.83377 L2966.49162,7013.75782 L2966.49162,7006.6916 C2966.49162,7006.04097 2965.9322,7005.49625 2965.28206,7005.49625 L2935.54206,7005.49625 L2928.63246,6998.61161 C2928.42078,6998.38464 2928.10327,6998.26359 2927.78577,6998.26359 L2908.91666,6998.26359 C2908.59915,6998.26359 2908.28165,6998.38464 2908.06997,6998.61161 L2898.1516,7008.53759 C2897.68289,7009.00666 2897.68289,7009.76321 2898.1516,7010.23227 L2906.16492,7018.25175 C2906.37659,7018.47871 2906.6941,7018.59976 2906.99649,7018.59976 L2906.99649,7018.59976 Z M3726.6836,7261.9983 L3726.6836,7249.40924 C3726.6836,7248.74347 3726.13929,7248.19875 3725.47404,7248.19875 L3718.42836,7248.19875 C3717.77823,7248.19875 3717.23392,7248.74347 3717.23392,7249.40924 L3717.23392,7267.94481 C3717.23392,7268.26256 3717.35488,7268.58032 3717.59679,7268.79215 L3725.97298,7277.20503 L3725.97298,7292.12428 C3725.97298,7292.4269 3726.10906,7292.74465 3726.33585,7292.97162 L3734.6818,7301.30884 C3734.90859,7301.53581 3735.21098,7301.67199 3735.51337,7301.67199 C3735.83088,7301.67199 3736.13327,7301.53581 3736.36006,7301.30884 L3741.16805,7296.49716 C3741.39484,7296.28532 3741.53092,7295.96757 3741.53092,7295.64982 L3741.53092,7277.35634 C3741.53092,7277.03859 3741.39484,7276.73597 3741.16805,7276.509 L3726.6836,7261.9983 Z M3722.81301,7314.47288 C3722.4955,7314.47288 3722.19311,7314.59393 3721.96632,7314.83602 L3711.89675,7324.91332 C3711.66996,7325.14029 3711.53388,7325.44291 3711.53388,7325.76066 L3711.53388,7335.24785 C3711.53388,7335.5656 3711.66996,7335.86822 3711.89675,7336.09519 L3718.67027,7342.87391 C3718.91219,7343.10088 3719.19946,7343.22193 3719.51697,7343.22193 C3719.83447,7343.22193 3720.12174,7343.10088 3720.36366,7342.87391 L3724.30984,7338.90957 C3724.55175,7338.69774 3724.67271,7338.37998 3724.67271,7338.06223 L3724.67271,7324.79227 L3727.84779,7320.44965 L3731.8091,7320.44965 C3732.12661,7320.44965 3732.44411,7320.32861 3732.65579,7320.10164 L3736.22398,7316.53071 C3736.57173,7316.18269 3736.67757,7315.66823 3736.48101,7315.22943 C3736.29958,7314.7755 3735.86112,7314.47288 3735.37729,7314.47288 L3722.81301,7314.47288 Z M3797.0345,7132.2493 C3797.0345,7132.89993 3797.5788,7133.45978 3798.24406,7133.45978 L3801.67618,7133.45978 C3802.34144,7133.45978 3802.88574,7132.89993 3802.88574,7132.2493 L3802.88574,7130.05529 C3802.88574,7129.73754 3802.74966,7129.41978 3802.52287,7129.19282 L3799.09075,7125.77319 C3798.72788,7125.41005 3798.1987,7125.31926 3797.79048,7125.50083 C3797.33689,7125.69754 3797.0345,7126.13634 3797.0345,7126.62053 L3797.0345,7132.2493 Z M3790.65409,7150.30067 L3790.65409,7162.85947 L3774.34017,7179.20103 L3764.76955,7179.20103 C3764.45204,7179.20103 3764.13453,7179.32208 3763.92286,7179.54905 L3752.76469,7190.73092 C3752.53789,7190.94275 3752.40182,7191.2605 3752.40182,7191.57826 L3752.40182,7196.63204 C3752.40182,7196.94979 3752.53789,7197.25241 3752.76469,7197.47938 L3757.10397,7201.822 C3757.34589,7202.04896 3757.63316,7202.18514 3757.95067,7202.18514 C3758.26817,7202.18514 3758.55544,7202.04896 3758.79736,7201.822 L3769.98577,7190.625 L3780.44844,7190.625 C3780.76595,7190.625 3781.08346,7190.50395 3781.29513,7190.26185 L3797.45785,7174.10186 C3797.68464,7173.87489 3797.82072,7173.55714 3797.82072,7173.23939 L3797.82072,7157.39715 L3812.62268,7142.55356 C3812.97043,7142.20555 3813.09138,7141.69109 3812.89483,7141.25229 C3812.7134,7140.79835 3812.27493,7140.49573 3811.79111,7140.49573 L3800.4515,7140.49573 C3800.13399,7140.49573 3799.81649,7140.63191 3799.58969,7140.85888 L3791.01695,7149.45333 C3790.77504,7149.66517 3790.65409,7149.98292 3790.65409,7150.30067 L3790.65409,7150.30067 Z M3798.24406,7125.27387 C3798.54645,7125.27387 3798.86396,7125.13769 3799.09075,7124.91072 L3805.2595,7118.73724 C3805.50141,7118.52541 3805.62236,7118.20765 3805.62236,7117.8899 L3805.62236,7100.74639 C3805.62236,7100.44377 3805.50141,7100.12601 3805.2595,7099.91418 L3803.05205,7097.70504 C3802.58335,7097.23598 3801.82738,7097.23598 3801.37379,7097.70504 L3798.9698,7100.08062 C3798.743,7100.30759 3798.62205,7100.61021 3798.62205,7100.92796 L3798.62205,7114.71237 L3797.39737,7115.95312 C3797.15546,7116.18009 3797.0345,7116.49784 3797.0345,7116.80046 L3797.0345,7124.06338 C3797.0345,7124.54758 3797.33689,7124.98638 3797.79048,7125.18308 C3797.92655,7125.24361 3798.07775,7125.27387 3798.24406,7125.27387 L3798.24406,7125.27387 Z M3023.41643,6984.1009 L3051.91664,6984.1009 C3052.23415,6984.1009 3052.55166,6983.97985 3052.76333,6983.75289 L3091.21215,6945.27455 L3106.11995,6945.27455 C3106.43746,6945.27455 3106.73985,6945.13837 3106.96664,6944.91141 L3115.19163,6936.69523 C3115.41842,6936.4834 3115.5545,6936.16564 3115.5545,6935.84789 C3115.5545,6935.53014 3115.41842,6935.22752 3115.19163,6935.00055 L3109.8847,6929.68954 C3109.67302,6929.46258 3109.35552,6929.3264 3109.05313,6929.3264 L3050.28374,6929.3264 C3049.96623,6929.3264 3049.64872,6929.46258 3049.43704,6929.68954 L3041.39348,6937.72414 L3012.8328,6937.72414 C3012.51529,6937.72414 3012.2129,6937.84519 3011.98611,6938.08729 L2995.30933,6954.792 C2994.84063,6955.26107 2994.84063,6956.01762 2995.30933,6956.47155 L3022.55462,6983.75289 C3022.78141,6983.97985 3023.09892,6984.1009 3023.41643,6984.1009 L3023.41643,6984.1009 Z M2972.78132,6979.04712 C2972.56964,6978.82016 2972.25214,6978.69911 2971.94975,6978.69911 C2971.61712,6978.69911 2971.31473,6978.82016 2971.08794,6979.04712 L2969.78766,6980.36353 C2969.57599,6980.59049 2969.43991,6980.89311 2969.43991,6981.21087 L2969.43991,6984.23708 C2969.43991,6984.5397 2969.57599,6984.85746 2969.80278,6985.06929 L2974.45958,6989.72966 C2974.68637,6989.95663 2974.98876,6990.09281 2975.30627,6990.09281 L2977.30204,6990.09281 L2980.29569,6993.07363 C2980.52249,6993.31573 2980.82488,6993.43678 2981.14239,6993.43678 L2988.23342,6993.43678 C2988.53581,6993.43678 2988.85332,6993.31573 2989.08011,6993.07363 L2990.95492,6991.19738 C2991.18172,6990.98554 2991.30267,6990.66779 2991.30267,6990.35004 L2991.30267,6983.54105 C2991.30267,6982.89042 2990.75837,6982.33057 2990.10823,6982.33057 L2976.09248,6982.33057 L2972.78132,6979.04712 Z M3222.34334,6920.44445 C3221.88975,6916.70708 3220.07542,6913.48416 3217.32367,6911.57764 C3214.58705,6909.68626 3211.33636,6909.35337 3208.35782,6910.70004 L3117.3386,6952.41642 C3115.99296,6953.0368 3114.78341,6953.99005 3113.75528,6955.20054 L3101.32708,6969.93821 L3090.84928,6969.93821 C3090.65273,6969.93821 3090.45617,6970.04413 3090.3201,6970.2257 L3083.09299,6978.78989 C3082.95692,6978.97147 3082.8662,6979.19843 3082.8662,6979.44053 C3082.8662,6979.68263 3082.95692,6979.92472 3083.09299,6980.09117 L3091.09119,6989.57835 C3093.01137,6991.87828 3095.67239,6993.19468 3098.40902,6993.19468 L3111.75951,6993.19468 C3114.08791,6993.19468 3116.35583,6994.29925 3117.98873,6996.25116 L3124.85298,7004.40681 C3126.51612,7006.40411 3127.43841,7009.02179 3127.43841,7011.82104 L3127.43841,7043.79301 C3127.43841,7047.09158 3128.51189,7050.19345 3130.4623,7052.50851 L3142.36133,7066.64094 C3144.37222,7069.04678 3147.03324,7070.24213 3149.69427,7070.24213 C3150.1025,7070.24213 3150.51072,7070.01517 3150.94919,7069.93951 C3152.29482,7067.74551 3153.95796,7065.70281 3156.02933,7064.46206 C3156.64923,7063.69038 3157.26913,7062.97922 3158.00998,7062.31345 C3159.47657,7059.37802 3161.06411,7056.53338 3162.72726,7053.70386 C3162.83309,7053.34072 3162.78773,7052.91705 3162.92381,7052.5539 C3165.05565,7046.62252 3168.01907,7041.90162 3172.2374,7037.21099 C3175.77536,7033.27691 3180.14489,7030.05399 3184.39346,7026.96725 C3186.2078,7025.68111 3188.40012,7025.01534 3190.66804,7024.78837 C3194.58398,7021.27796 3198.636,7017.8886 3202.58219,7014.37819 L3202.58219,7007.84156 L3207.01219,7002.56082 C3207.16339,7002.37924 3207.23898,7002.15228 3207.23898,7001.91018 L3207.23898,6985.09955 C3207.23898,6982.28517 3208.16127,6979.68263 3209.82441,6977.68532 L3223.15979,6961.84308 C3225.45795,6959.11949 3226.56167,6955.21567 3226.09297,6951.38751 L3222.34334,6920.44445 Z M2995.83851,6996.02419 C2996.06531,6996.25116 2996.36769,6996.38734 2996.6852,6996.38734 L3003.32265,6996.38734 C3003.64016,6996.38734 3003.94255,6996.25116 3004.16934,6996.02419 L3005.93832,6994.25386 C3006.16511,6994.02689 3006.30119,6993.72427 3006.30119,6993.40652 L3006.30119,6991.75723 C3006.30119,6991.42434 3006.16511,6991.13685 3005.93832,6990.89476 L3004.89508,6989.88097 C3004.6834,6989.66914 3004.3659,6989.53296 3004.06351,6989.53296 L2996.912,6989.53296 C2996.59449,6989.53296 2996.2921,6989.66914 2996.06531,6989.8961 L2993.73691,6992.21116 C2993.51011,6992.43813 2993.37404,6992.72562 2993.37404,6993.0585 C2993.37404,6993.37625 2993.51011,6993.67887 2993.73691,6993.90584 L2995.83851,6996.02419 Z M2970.30172,6972.81312 L2986.5098,6972.81312 C2987.17506,6972.81312 2987.71936,6972.2684 2987.71936,6971.61776 L2987.71936,6969.5448 C2987.71936,6969.24218 2987.58328,6968.92443 2987.35649,6968.69746 L2984.06044,6965.41402 C2983.84877,6965.18705 2983.53126,6965.05087 2983.22887,6965.05087 L2976.06224,6965.05087 L2970.58899,6959.57342 C2970.3622,6959.34646 2970.05981,6959.21028 2969.7423,6959.21028 L2966.35554,6959.21028 C2966.03803,6959.21028 2965.72052,6959.34646 2965.49373,6959.57342 L2961.8953,6963.18975 C2961.41147,6963.65881 2961.41147,6964.41537 2961.8953,6964.88443 L2969.45503,6972.44997 C2969.68182,6972.69207 2969.98421,6972.81312 2970.30172,6972.81312 L2970.30172,6972.81312 Z M3055.93842,7046.9554 L3062.1374,7046.9554 C3062.80266,7046.9554 3063.34696,7046.41068 3063.34696,7045.74492 L3063.34696,7041.23586 C3063.34696,7040.9181 3063.21088,7040.61548 3062.98409,7040.38852 L3061.42679,7038.84515 C3061.21511,7038.63331 3060.89761,7038.51226 3060.59522,7038.51226 L3056.55832,7038.51226 C3056.25593,7038.51226 3055.93842,7038.63331 3055.72675,7038.86028 L3053.54954,7041.03915 C3053.32275,7041.25099 3053.18667,7041.56874 3053.18667,7041.88649 L3053.18667,7044.20155 C3053.18667,7044.5193 3053.32275,7044.82192 3053.54954,7045.04889 L3055.09173,7046.59226 C3055.31852,7046.83435 3055.62091,7046.9554 3055.93842,7046.9554 L3055.93842,7046.9554 Z M2919.80268,6988.65536 C2920.12019,6988.65536 2920.4377,6988.53431 2920.66449,6988.30734 L2930.74918,6978.18465 C2930.97597,6977.97281 2931.11205,6977.65506 2931.11205,6977.35244 L2931.11205,6974.29596 C2931.11205,6973.6302 2930.55263,6973.08548 2929.90249,6973.08548 L2922.13108,6973.08548 C2921.81357,6973.08548 2921.49606,6973.20652 2921.28439,6973.44862 L2908.14557,6986.61266 C2907.79782,6986.94554 2907.69199,6987.47513 2907.87342,6987.91393 C2908.06997,6988.36787 2908.50844,6988.65536 2908.99226,6988.65536 L2919.80268,6988.65536 Z M2946.74558,6978.13926 C2947.06309,6978.13926 2947.3806,6978.01821 2947.59227,6977.79124 L2953.18648,6972.17761 C2953.42839,6971.96578 2953.54935,6971.64802 2953.54935,6971.33027 L2953.54935,6966.95739 C2953.54935,6966.29162 2953.00505,6965.7469 2952.33979,6965.7469 L2943.04131,6965.7469 C2942.7238,6965.7469 2942.42142,6965.86795 2942.19462,6966.11005 L2937.62854,6970.67963 C2937.40175,6970.89147 2937.26567,6971.20922 2937.26567,6971.51184 L2937.26567,6976.92877 C2937.26567,6977.59454 2937.80998,6978.13926 2938.47523,6978.13926 L2946.74558,6978.13926 Z M2996.57937,6984.11603 C2996.80616,6984.35813 2997.10855,6984.47918 2997.42606,6984.47918 L3005.80225,6984.47918 L3008.47839,6987.17251 L3008.47839,6993.0585 C3008.47839,6993.37625 3008.61447,6993.67887 3008.84126,6993.90584 L3011.98611,6997.05311 C3012.2129,6997.2952 3012.51529,6997.41625 3012.8328,6997.41625 L3048.37868,6997.41625 C3048.69619,6997.41625 3049.0137,6997.2952 3049.24049,6997.05311 L3053.64026,6992.63483 C3053.88217,6992.423 3054.00313,6992.10524 3054.00313,6991.78749 C3054.00313,6991.46974 3053.88217,6991.16712 3053.64026,6990.95528 L3051.44793,6988.7764 C3051.23626,6988.53431 3050.91875,6988.41326 3050.60124,6988.41326 L3021.42066,6988.41326 L3010.08106,6977.08008 C3009.86938,6976.85311 3009.55187,6976.71694 3009.23437,6976.71694 L2994.70455,6976.71694 C2994.05442,6976.71694 2993.51011,6977.26165 2993.51011,6977.92742 L2993.51011,6980.56023 C2993.51011,6980.86285 2993.63107,6981.1806 2993.85786,6981.39244 L2996.57937,6984.11603 Z M2927.02979,6989.65401 L2927.02979,6992.58944 C2927.02979,6993.24007 2927.57409,6993.79992 2928.22423,6993.79992 L2963.377,6993.79992 C2964.02714,6993.79992 2964.57144,6993.24007 2964.57144,6992.58944 L2964.57144,6988.30734 C2964.57144,6987.98959 2964.45049,6987.67184 2964.2237,6987.46 L2962.33376,6985.56862 C2962.10697,6985.32652 2961.78946,6985.20547 2961.48707,6985.20547 L2959.88441,6985.20547 L2955.66607,6980.9839 C2955.19737,6980.52997 2954.4414,6980.52997 2953.97269,6980.9839 L2948.65064,6986.29491 L2945.94425,6986.29491 L2941.80152,6982.17925 C2941.58984,6981.93716 2941.27234,6981.81611 2940.95483,6981.81611 L2934.86168,6981.81611 C2934.54417,6981.81611 2934.24178,6981.93716 2934.01499,6982.17925 L2927.37754,6988.80667 C2927.15075,6989.0185 2927.02979,6989.33625 2927.02979,6989.65401 L2927.02979,6989.65401 Z M3053.85193,7067.65472 C3054.03336,7067.21592 3053.92753,7066.70146 3053.57978,7066.35345 L3046.11076,7058.87869 C3045.88397,7058.65173 3045.56646,7058.53068 3045.26407,7058.53068 L3042.27041,7058.53068 L3038.36959,7054.64199 C3037.91601,7054.17293 3037.16003,7054.17293 3036.69133,7054.64199 L3028.16395,7063.17592 C3027.69524,7063.64498 3027.69524,7064.40154 3028.16395,7064.8706 L3033.18361,7069.89412 C3033.4104,7070.13622 3033.71279,7070.25726 3034.0303,7070.25726 L3038.98949,7070.25726 C3039.29188,7070.25726 3039.60939,7070.13622 3039.82106,7069.90925 L3041.34813,7068.41127 L3052.73309,7068.41127 C3053.21691,7068.41127 3053.65538,7068.10865 3053.85193,7067.65472 L3053.85193,7067.65472 Z M3102.34008,7252.93478 L3098.3183,7252.93478 C3097.65304,7252.93478 3097.10874,7253.49463 3097.10874,7254.14527 L3097.10874,7255.83995 C3097.10874,7256.1577 3097.2297,7256.47545 3097.45649,7256.70242 L3098.84748,7258.10961 C3099.07427,7258.33658 3099.37666,7258.45762 3099.70929,7258.45762 L3104.07882,7258.45762 C3104.72896,7258.45762 3105.27326,7257.91291 3105.27326,7257.26227 L3105.27326,7255.88534 C3105.27326,7255.56759 3105.1523,7255.24984 3104.91039,7255.038 L3103.17165,7253.29793 C3102.95998,7253.05583 3102.64247,7252.93478 3102.34008,7252.93478 L3102.34008,7252.93478 Z M3062.15252,7257.88264 L3056.45248,7257.88264 C3055.80234,7257.88264 3055.24292,7258.42736 3055.24292,7259.09313 L3055.24292,7260.30362 C3055.24292,7260.6365 3055.379,7260.93912 3055.60579,7261.18122 L3056.61879,7262.14961 C3056.83047,7262.37657 3057.14798,7262.49762 3057.45037,7262.49762 L3063.39232,7262.49762 C3064.04246,7262.49762 3064.58676,7261.9529 3064.58676,7261.30227 L3064.58676,7260.33388 C3064.58676,7260.01613 3064.4658,7259.69837 3064.22389,7259.48654 L3062.99921,7258.24579 C3062.77242,7258.01882 3062.47003,7257.88264 3062.15252,7257.88264 L3062.15252,7257.88264 Z M3075.63909,7261.40818 C3075.85076,7261.65028 3076.16827,7261.77133 3076.47066,7261.77133 L3088.56624,7261.77133 C3088.88375,7261.77133 3089.20126,7261.65028 3089.41293,7261.40818 L3092.5729,7258.24579 C3093.0416,7257.77673 3093.0416,7257.0353 3092.5729,7256.55111 L3090.33522,7254.31171 C3090.12355,7254.08474 3089.80604,7253.94856 3089.48853,7253.94856 L3082.54869,7253.94856 L3078.64787,7250.05988 C3078.43619,7249.83291 3078.11868,7249.69673 3077.80118,7249.69673 L3065.0101,7249.69673 L3056.48272,7241.17793 C3056.25593,7240.95097 3055.93842,7240.82992 3055.62091,7240.82992 L3038.64174,7240.82992 C3038.32423,7240.82992 3038.00672,7240.95097 3037.79505,7241.17793 L3033.36504,7245.61134 C3033.03242,7245.95935 3032.91146,7246.47381 3033.10801,7246.91261 C3033.28945,7247.36654 3033.72791,7247.66917 3034.21174,7247.66917 L3052.12831,7247.66917 L3060.05091,7255.58272 C3060.27771,7255.82482 3060.59522,7255.94587 3060.89761,7255.94587 L3070.18096,7255.94587 L3075.63909,7261.40818 Z M3466.87057,7362.09038 L3442.90621,7386.05801 C3442.67942,7386.28498 3442.55846,7386.5876 3442.55846,7386.90535 L3442.55846,7416.62279 C3442.55846,7417.28856 3443.10276,7417.83328 3443.7529,7417.83328 L3453.32352,7417.83328 C3453.64103,7417.83328 3453.95854,7417.71223 3454.17022,7417.47013 L3462.50104,7409.14804 C3462.72784,7408.92107 3462.84879,7408.61845 3462.84879,7408.3007 L3462.84879,7391.9894 L3468.56395,7386.26985 C3468.80587,7386.04288 3468.92682,7385.72513 3468.92682,7385.40738 L3468.92682,7362.93772 C3468.92682,7362.45353 3468.62443,7362.01473 3468.17085,7361.81802 C3467.73238,7361.62132 3467.18808,7361.74237 3466.87057,7362.09038 L3466.87057,7362.09038 Z M3907.58809,7483.63834 C3907.2857,7483.63834 3906.96819,7483.75939 3906.7414,7484.00149 L3884.95424,7505.80537 C3884.48553,7506.27444 3884.48553,7507.03099 3884.95424,7507.50005 L3887.58503,7510.13286 C3887.7967,7510.35983 3888.11421,7510.49601 3888.43172,7510.49601 L3894.47951,7510.49601 C3894.79701,7510.49601 3895.0994,7510.35983 3895.3262,7510.13286 L3913.15205,7492.27819 C3913.39397,7492.06635 3913.51492,7491.7486 3913.51492,7491.43085 L3913.51492,7484.84883 C3913.51492,7484.18306 3912.97062,7483.63834 3912.32048,7483.63834 L3907.58809,7483.63834 Z M3480.16059,6995.94854 C3480.37226,6996.1755 3480.68977,6996.29655 3480.99216,6996.29655 L3494.37289,6996.29655 C3494.85672,6996.29655 3495.29518,6996.00906 3495.47662,6995.55513 C3495.67317,6995.11633 3495.56733,6994.58674 3495.21958,6994.25386 L3490.38135,6989.39678 L3490.38135,6985.71993 L3513.95261,6962.13058 L3529.69198,6962.13058 C3529.99437,6962.13058 3530.31188,6962.00953 3530.53867,6961.76743 L3536.48063,6955.80578 C3536.82837,6955.45777 3536.93421,6954.94331 3536.75278,6954.50451 C3536.55622,6954.05058 3536.11776,6953.76309 3535.63394,6953.76309 L3507.17909,6953.76309 C3506.8767,6953.76309 3506.55919,6953.88414 3506.3324,6954.1111 L3473.19051,6987.29356 C3472.9486,6987.52053 3472.82764,6987.83828 3472.82764,6988.1409 C3472.82764,6988.45865 3472.9486,6988.7764 3473.19051,6988.98824 L3480.16059,6995.94854 Z M3340.07867,6951.59934 C3340.30546,6951.82631 3340.62297,6951.94736 3340.92536,6951.94736 L3349.77025,6951.94736 C3350.08776,6951.94736 3350.39015,6951.82631 3350.61695,6951.59934 L3358.37323,6943.82197 L3369.38021,6943.82197 C3369.69772,6943.82197 3370.00011,6943.70092 3370.2269,6943.47395 L3386.66177,6927.0416 C3387.00952,6926.69359 3387.11535,6926.164 3386.93392,6925.74033 C3386.73737,6925.2864 3386.2989,6924.98378 3385.81508,6924.98378 L3326.80378,6924.98378 C3326.13852,6924.98378 3325.59422,6925.5285 3325.59422,6926.19426 L3325.59422,6936.61958 C3325.59422,6936.9222 3325.73029,6937.23995 3325.95708,6937.45179 L3340.07867,6951.59934 Z M3783.85032,6966.57911 C3784.07711,6966.80608 3784.3795,6966.94226 3784.69701,6966.94226 L3821.69436,6966.94226 C3822.19331,6966.94226 3822.61665,6966.63964 3822.8132,6966.1857 C3822.99464,6965.7469 3822.8888,6965.23245 3822.55617,6964.88443 L3815.84313,6958.18136 C3815.61634,6957.93927 3815.31395,6957.81822 3814.99644,6957.81822 L3780.72059,6957.81822 C3780.05533,6957.81822 3779.51103,6958.37807 3779.51103,6959.0287 L3779.51103,6961.73717 C3779.51103,6962.05492 3779.64711,6962.35754 3779.8739,6962.58451 L3783.85032,6966.57911 Z M3748.30444,7312.85385 C3748.09277,7312.61176 3747.77526,7312.49071 3747.47287,7312.49071 L3744.41874,7312.49071 C3743.7686,7312.49071 3743.20918,7313.03543 3743.20918,7313.68606 L3743.20918,7317.19647 C3743.20918,7317.51423 3743.33013,7317.83198 3743.57205,7318.04381 L3748.16837,7322.64366 C3748.39516,7322.88576 3748.69755,7323.00681 3749.01506,7323.00681 C3749.34769,7323.00681 3749.63496,7322.88576 3749.86175,7322.64366 L3752.17503,7320.31348 C3752.40182,7320.10164 3752.53789,7319.78389 3752.53789,7319.46613 L3752.53789,7317.55962 C3752.53789,7317.24187 3752.40182,7316.93924 3752.17503,7316.71228 L3748.30444,7312.85385 Z M3720.9382,7356.03795 L3716.53843,7356.03795 C3716.23604,7356.03795 3715.91853,7356.159 3715.70686,7356.38597 L3714.08907,7357.97473 C3713.86228,7358.21683 3713.72621,7358.50432 3713.72621,7358.8372 C3713.72621,7359.15495 3713.86228,7359.45758 3714.08907,7359.68454 L3715.54054,7361.13713 C3715.76734,7361.37922 3716.08484,7361.50027 3716.38723,7361.50027 L3720.42413,7361.50027 C3720.74164,7361.50027 3721.04403,7361.37922 3721.27082,7361.15226 L3723.07004,7359.36679 C3723.29683,7359.13982 3723.41779,7358.82207 3723.41779,7358.50432 C3723.41779,7358.18657 3723.29683,7357.88394 3723.07004,7357.64185 L3721.78489,7356.38597 C3721.55809,7356.159 3721.2557,7356.03795 3720.9382,7356.03795 L3720.9382,7356.03795 Z M3755.15356,7330.02763 L3748.45564,7330.02763 C3748.13813,7330.02763 3747.83574,7330.16381 3747.60895,7330.37564 L3745.64341,7332.34268 C3745.4015,7332.56965 3745.28055,7332.87227 3745.28055,7333.19002 C3745.28055,7333.50778 3745.4015,7333.82553 3745.64341,7334.03736 L3747.41239,7335.82283 C3747.63918,7336.06493 3747.94157,7336.18598 3748.25908,7336.18598 L3754.51854,7336.18598 C3754.83605,7336.18598 3755.15356,7336.06493 3755.36524,7335.82283 L3757.55756,7333.62882 C3757.78435,7333.41699 3757.92043,7333.09924 3757.92043,7332.78148 C3757.92043,7332.46373 3757.78435,7332.16111 3757.55756,7331.93414 L3755.98513,7330.37564 C3755.77346,7330.16381 3755.45595,7330.02763 3755.15356,7330.02763 L3755.15356,7330.02763 Z M3784.96916,7354.72155 L3811.82135,7354.72155 L3818.26224,7361.13713 C3818.47392,7361.37922 3818.79142,7361.50027 3819.09381,7361.50027 L3828.52836,7361.50027 C3829.01219,7361.50027 3829.45065,7361.19765 3829.63209,7360.74372 C3829.81352,7360.30492 3829.70768,7359.79046 3829.35994,7359.44245 L3798.9698,7329.04411 C3798.75812,7328.81714 3798.44061,7328.68096 3798.1231,7328.68096 L3771.04413,7328.68096 L3765.99422,7323.65744 C3765.78255,7323.43048 3765.46504,7323.2943 3765.16265,7323.2943 L3758.34377,7323.2943 C3757.69363,7323.2943 3757.14933,7323.85415 3757.14933,7324.50478 L3757.14933,7330.34538 C3757.14933,7330.66313 3757.27029,7330.96575 3757.5122,7331.19272 L3764.24037,7337.92605 C3764.45204,7338.15302 3764.76955,7338.2892 3765.07194,7338.2892 L3776.54762,7338.2892 L3783.77473,7345.52185 L3783.77473,7353.51106 C3783.77473,7354.17683 3784.31903,7354.72155 3784.96916,7354.72155 L3784.96916,7354.72155 Z M3729.82845,7357.7175 L3729.82845,7360.28979 C3729.82845,7360.95555 3730.37275,7361.50027 3731.02288,7361.50027 L3732.86746,7361.50027 C3733.18497,7361.50027 3733.50248,7361.37922 3733.71415,7361.13713 L3742.66488,7352.17953 C3743.01263,7351.84664 3743.11846,7351.33219 3742.92191,7350.87825 C3742.74048,7350.42432 3742.30201,7350.13683 3741.81819,7350.13683 L3737.38818,7350.13683 C3737.08579,7350.13683 3736.76828,7350.25788 3736.55661,7350.48485 L3730.19131,7356.88529 C3729.9494,7357.09713 3729.82845,7357.41488 3729.82845,7357.7175 L3729.82845,7357.7175 Z M3888.71899,7406.18235 L3888.71899,7404.32123 C3888.71899,7404.00347 3888.59803,7403.70085 3888.37124,7403.47388 L3883.20038,7398.31419 C3882.98871,7398.07209 3882.6712,7397.95104 3882.36881,7397.95104 L3880.04041,7397.95104 C3879.39027,7397.95104 3878.84597,7398.49576 3878.84597,7399.16153 L3878.84597,7401.24962 C3878.84597,7401.56737 3878.96693,7401.88512 3879.20884,7402.09696 L3884.09243,7407.01456 C3884.3041,7407.25665 3884.62161,7407.3777 3884.93912,7407.3777 L3887.52455,7407.3777 C3888.17469,7407.3777 3888.71899,7406.83298 3888.71899,7406.18235 L3888.71899,7406.18235 Z M3847.41259,7340.93714 C3847.20091,7340.69504 3846.88341,7340.57399 3846.5659,7340.57399 L3843.78391,7340.57399 C3843.13378,7340.57399 3842.58947,7341.11871 3842.58947,7341.76935 L3842.58947,7344.29624 C3842.58947,7344.61399 3842.71043,7344.91661 3842.93722,7345.14358 L3845.74944,7347.94283 C3845.96112,7348.18492 3846.27863,7348.30597 3846.58102,7348.30597 L3848.69774,7348.30597 C3849.01525,7348.30597 3849.33276,7348.18492 3849.54443,7347.95796 L3850.5272,7346.98957 C3850.76911,7346.74747 3850.89007,7346.45998 3850.89007,7346.1271 L3850.89007,7344.88635 C3850.89007,7344.56859 3850.76911,7344.26597 3850.5272,7344.03901 L3847.41259,7340.93714 Z M3837.44885,7333.74987 C3837.01039,7333.29594 3836.19394,7333.29594 3835.77059,7333.74987 L3828.99707,7340.54373 L3820.62088,7340.54373 C3819.97074,7340.54373 3819.41132,7341.08845 3819.41132,7341.73908 L3819.41132,7343.37324 C3819.41132,7343.69099 3819.5474,7343.99361 3819.77419,7344.22058 L3821.04423,7345.47646 C3821.27102,7345.71856 3821.57341,7345.83961 3821.89092,7345.83961 L3830.47878,7345.83961 C3830.78117,7345.83961 3831.09868,7345.71856 3831.32547,7345.47646 L3839.41439,7337.41159 C3839.64118,7337.18463 3839.76213,7336.86688 3839.76213,7336.56425 C3839.76213,7336.2465 3839.64118,7335.92875 3839.41439,7335.71691 L3837.44885,7333.74987 Z M3807.89028,7482.26141 C3807.22503,7482.26141 3806.68073,7482.80613 3806.68073,7483.4719 L3806.68073,7492.41437 C3806.68073,7492.71699 3806.8168,7493.03474 3807.04359,7493.24658 L3810.14309,7496.34845 C3810.35476,7496.59054 3810.67227,7496.71159 3810.98978,7496.71159 L3815.99432,7496.71159 C3816.29671,7496.71159 3816.61422,7496.59054 3816.84101,7496.34845 L3820.36385,7492.83804 C3820.59064,7492.61107 3820.7116,7492.29332 3820.7116,7491.97557 L3820.7116,7483.4719 C3820.7116,7482.80613 3820.1673,7482.26141 3819.51716,7482.26141 L3807.89028,7482.26141 Z M3910.47591,7456.91686 C3910.03744,7457.11356 3909.73505,7457.55236 3909.73505,7458.03656 L3909.73505,7464.83041 C3909.73505,7465.14816 3909.85601,7465.46592 3910.09792,7465.69288 L3912.84967,7468.477 L3912.84967,7482.92718 C3912.84967,7483.2298 3912.97062,7483.54755 3913.21253,7483.75939 L3916.16083,7486.72508 C3916.40274,7486.95205 3916.69001,7487.08823 3917.00752,7487.08823 C3917.32503,7487.08823 3917.6123,7486.95205 3917.85421,7486.72508 L3928.70999,7475.84584 C3929.19382,7475.37677 3929.19382,7474.62022 3928.70999,7474.15115 L3911.77618,7457.18922 C3911.44355,7456.82607 3910.88413,7456.72015 3910.47591,7456.91686 L3910.47591,7456.91686 Z M3675.97288,7323.38508 L3688.26501,7335.68665 C3688.47669,7335.91362 3688.7942,7336.0498 3689.11171,7336.0498 L3703.79271,7336.0498 C3704.11022,7336.0498 3704.42773,7335.91362 3704.6394,7335.68665 L3708.52511,7331.79796 C3708.7519,7331.58613 3708.87286,7331.26838 3708.87286,7330.95062 L3708.87286,7309.11648 L3715.82781,7302.15618 C3716.05461,7301.92921 3716.17556,7301.62659 3716.17556,7301.30884 L3716.17556,7297.45041 C3716.17556,7296.79978 3715.63126,7296.25506 3714.98112,7296.25506 L3711.05006,7296.25506 L3707.05852,7292.26045 C3706.84685,7292.03349 3706.52934,7291.89731 3706.22695,7291.89731 C3705.90944,7291.89731 3705.59193,7292.03349 3705.38026,7292.26045 L3675.97288,7321.6904 C3675.50418,7322.15947 3675.50418,7322.91602 3675.97288,7323.38508 L3675.97288,7323.38508 Z M3715.25327,7278.26421 L3707.60282,7285.92053 C3707.37603,7286.13237 3707.25507,7286.45012 3707.25507,7286.76787 L3707.25507,7288.3869 C3707.25507,7288.71978 3707.37603,7289.0224 3707.60282,7289.24937 L3708.70654,7290.33881 C3708.93333,7290.55064 3709.25084,7290.68682 3709.55323,7290.68682 C3709.85562,7290.68682 3710.15801,7290.55064 3710.39992,7290.32368 L3716.94665,7283.75679 C3717.18857,7283.54495 3717.30952,7283.2272 3717.30952,7282.92458 L3717.30952,7279.11155 C3717.30952,7278.62735 3717.02225,7278.18855 3716.55355,7278.00698 C3716.11508,7277.79514 3715.5859,7277.90106 3715.25327,7278.26421 L3715.25327,7278.26421 Z M3251.62976,7079.15434 L3244.62944,7086.12977 C3244.40265,7086.3416 3244.26657,7086.65935 3244.26657,7086.97711 L3244.26657,7099.39972 C3244.26657,7100.06549 3244.82599,7100.61021 3245.47613,7100.61021 L3252.77884,7100.61021 C3253.09634,7100.61021 3253.39873,7100.48916 3253.62553,7100.24706 L3259.77915,7094.10385 C3260.00594,7093.87688 3260.1269,7093.55913 3260.1269,7093.2565 L3260.1269,7079.98655 C3260.1269,7079.33591 3259.5826,7078.79119 3258.93246,7078.79119 L3252.46133,7078.79119 C3252.15894,7078.79119 3251.84143,7078.91224 3251.62976,7079.15434 L3251.62976,7079.15434 Z M3731.52183,7354.76694 L3732.86746,7353.39001 C3733.32104,7352.92095 3733.32104,7352.1644 3732.85234,7351.69533 L3731.46135,7350.30327 C3731.24968,7350.07631 3730.93217,7349.94013 3730.61466,7349.94013 L3696.92847,7349.94013 L3692.80086,7345.80934 C3692.57406,7345.58238 3692.27167,7345.4462 3691.95417,7345.4462 L3666.2813,7345.4462 C3665.78236,7345.4462 3665.35901,7345.74882 3665.16246,7346.20275 C3664.98103,7346.64155 3665.08686,7347.15601 3665.41949,7347.50402 L3672.66172,7354.76694 C3672.88851,7355.00904 3673.20602,7355.13009 3673.52353,7355.13009 L3730.6449,7355.13009 C3730.97753,7355.13009 3731.27992,7355.00904 3731.52183,7354.76694 L3731.52183,7354.76694 Z M3667.62693,7341.52725 L3667.62693,7327.2889 C3667.62693,7326.63827 3667.08263,7326.09355 3666.4325,7326.09355 L3662.57703,7326.09355 L3632.21713,7295.71034 C3631.8845,7295.34719 3631.32508,7295.22615 3630.91685,7295.43798 C3630.46327,7295.61955 3630.176,7296.07349 3630.176,7296.54255 L3630.176,7307.13431 C3630.176,7307.45206 3630.29696,7307.75468 3630.52375,7307.98165 L3636.78321,7314.23078 L3636.78321,7318.22539 C3636.78321,7318.52801 3636.91928,7318.84576 3637.14608,7319.0576 L3660.41495,7342.37459 C3660.64174,7342.60155 3660.95925,7342.7226 3661.27676,7342.7226 L3666.4325,7342.7226 C3667.08263,7342.7226 3667.62693,7342.17788 3667.62693,7341.52725 L3667.62693,7341.52725 Z M3684.51539,7256.85373 L3689.27802,7252.07231 C3689.51993,7251.86047 3689.64089,7251.54272 3689.64089,7251.2401 L3689.64089,7247.95666 C3689.64089,7247.30602 3689.09659,7246.7613 3688.43133,7246.7613 L3682.8976,7246.7613 C3682.58009,7246.7613 3682.2777,7246.88235 3682.05091,7247.10932 L3678.66415,7250.51381 C3678.42224,7250.74077 3678.30128,7251.0434 3678.30128,7251.36115 L3678.30128,7254.72025 C3678.30128,7255.038 3678.42224,7255.35575 3678.66415,7255.56759 L3679.93418,7256.85373 C3680.16098,7257.09583 3680.47849,7257.21688 3680.79599,7257.21688 L3683.66869,7257.21688 C3683.97108,7257.21688 3684.28859,7257.09583 3684.51539,7256.85373 L3684.51539,7256.85373 Z M3725.47404,7222.73315 C3726.13929,7222.73315 3726.6836,7223.27787 3726.6836,7223.94363 L3726.6836,7230.26842 C3726.6836,7230.57105 3726.54752,7230.8888 3726.32073,7231.10063 L3721.36154,7236.06363 C3721.13475,7236.29059 3720.83236,7236.42677 3720.51485,7236.42677 C3720.19734,7236.42677 3719.91007,7236.29059 3719.66816,7236.06363 L3717.14321,7233.52161 C3716.9013,7233.30977 3716.78034,7232.99202 3716.78034,7232.6894 L3716.78034,7228.69479 C3716.78034,7228.37704 3716.9013,7228.07442 3717.14321,7227.84745 L3721.89072,7223.08116 C3722.10239,7222.8542 3722.4199,7222.73315 3722.73741,7222.73315 L3725.47404,7222.73315 Z" id="Fill-1" fill="#FFFFFF"></path>
            </g>
        </g>
    </g>
</svg>
